{"jobs":[{"id":"12f54229-7b45-44ad-a500-4228f17c41fa","title":"AIIMS Kalyani Project Research Scientist     – 01 Posts","department":"All India Institute of Medical Sciences, Kalyani","category":"Other","states":["All India"],"ageMin":null,"ageMax":null,"ageRelaxation":null,"qualification":"First Class Post Graduate Degree or Second Class Post Graduate Degree with PhD","vacancies":1,"applicationStartDate":"2026-02-03","lastDate":"2026-02-25","examDate":null,"notificationPdfUrl":"https://aiimskalyani.edu.in/wp-content/uploads/2026/02/AROMA-final-diet-adv.pdf","applyUrl":"https://aiimskalyani.edu.in/","sourceName":"Free Job Alert","sourceUrl":"https://www.freejobalert.com/articles/aiims-kalyani-project-research-scientist-recruitment-2026-apply-online-for-01-posts-3037220","isVerified":true,"description":"Download Mobile APP\n                                      \n                                 \n                                   \n                                  \n                                  \n                                    \n                                     Join Whatsapp\n                                  \n                                  \n                                  \n                                  \n                                  \n                                  \n   ","salaryRange":"Rs. 56,000 + HRA per month","photoRequirements":"[STANDARD] Photo: JPEG, 50-100 KB, passport size, plain/white background, recent coloured photograph","signatureRequirements":"[STANDARD] Signature: JPEG, 10-50 KB, black ink on white paper","createdAt":"2026-02-12T12:04:44.133Z","updatedAt":"2026-02-12T12:04:44.133Z"},{"id":"f64bf091-bb00-4315-b967-ee5e011ec9f5","title":"THDC Physiotherapist     – 02 Posts","department":"Nil","category":"Other","states":["All India"],"ageMin":11,"ageMax":2,"ageRelaxation":"45 years (as on 11-02-2026) with relaxation of 10 years for PwBD candidates","qualification":"Master of Physiotherapy in Musculoskeletal Disorders and Sports (MTP-MSS) or Master of Physiotherapy in Neurological and Psychosomatic Disorders (MPT-NPD) from recognized university/institute","vacancies":2,"applicationStartDate":"2026-02-11","lastDate":"2026-03-12","examDate":null,"notificationPdfUrl":"https://thdc.co.in/sites/default/files/career/ENGAGEMENT_OF_PHYSIOTHERAPIST_ADVT_NO_01_2026.pdf","applyUrl":null,"sourceName":"Free Job Alert","sourceUrl":"https://www.freejobalert.com/articles/thdc-physiotherapist-recruitment-2026-apply-online-for-02-posts-3037211","isVerified":true,"description":"Download Mobile APP\n                                      \n                                 \n                                   \n                                  \n                                  \n                                    \n                                     Join Whatsapp\n                                  \n                                  \n                                  \n                                  \n                                  \n                                  \n   ","salaryRange":"Rs. 71,430 (Level III) / Rs. 80,360 (Level IV) per month","photoRequirements":null,"signatureRequirements":null,"createdAt":"2026-02-12T12:04:43.156Z","updatedAt":"2026-02-12T12:04:43.156Z"},{"id":"1a24010b-ae0b-41d4-805f-dd6345035fc5","title":"MANUU Caretaker     – 02 Posts","department":"MANUU","category":"Other","states":["All India"],"ageMin":null,"ageMax":null,"ageRelaxation":null,"qualification":"Graduate from recognised University/Institute with Computer Operations proficiency and Urdu knowledge","vacancies":2,"applicationStartDate":"2026-02-11","lastDate":"2026-02-18","examDate":null,"notificationPdfUrl":"https://manuu.edu.in/sites/default/files/Notification/2026-02/WalkinInterviewCaretakers11226.pdf","applyUrl":"https://manuu.edu.in","sourceName":"Free Job Alert","sourceUrl":"https://www.freejobalert.com/articles/manuu-caretaker-recruitment-2026-walk-in-for-02-posts-3037212","isVerified":true,"description":"Download Mobile APP\n                                      \n                                 \n                                   \n                                  \n                                  \n                                    \n                                     Join Whatsapp\n                                  \n                                  \n                                  \n                                  \n                                  \n                                  \n   ","salaryRange":"Rs. 24,525/- per month (Consolidated)","photoRequirements":null,"signatureRequirements":null,"createdAt":"2026-02-12T12:04:38.138Z","updatedAt":"2026-02-12T12:04:38.138Z"},{"id":"cc6500c1-b9a1-4469-a859-3471fa6d84fa","title":"Thanjavur Medical college Data Entry Operator     – 02 Posts","department":"Thanjavur Medical college","category":"Other","states":["All India"],"ageMin":null,"ageMax":null,"ageRelaxation":null,"qualification":"12th","vacancies":2,"applicationStartDate":"2026-02-11","lastDate":"2026-02-26","examDate":null,"notificationPdfUrl":"https://cdn.s3waas.gov.in/s3b7b16ecf8ca53723593894116071700c/uploads/2026/02/17707230516546.pdf","applyUrl":"https://thanjavur.nic.in/","sourceName":"Free Job Alert","sourceUrl":"https://www.freejobalert.com/articles/thanjavur-medical-college-deo-recruitment-2026-apply-offline-for-02-posts-3037215","isVerified":true,"description":"Download Mobile APP\n                                      \n                                 \n                                   \n                                  \n                                  \n                                    \n                                     Join Whatsapp\n                                  \n                                  \n                                  \n                                  \n                                  \n                                  \n   ","salaryRange":"Rs.17,000/- Per Month","photoRequirements":null,"signatureRequirements":null,"createdAt":"2026-02-12T12:04:34.826Z","updatedAt":"2026-02-12T12:04:34.826Z"},{"id":"cc659b09-d994-4812-a85e-896649968d44","title":"Juvenile Justice Board Tiruppur Social Worker Members     – 02 Posts","department":"Juvenile Justice Board Tiruppur","category":"Other","states":["All India"],"ageMin":35,"ageMax":65,"ageRelaxation":null,"qualification":"Graduate / 7 Years Experience","vacancies":2,"applicationStartDate":"2026-02-11","lastDate":"2026-03-12","examDate":null,"notificationPdfUrl":"https://cdn.s3waas.gov.in/s3d1f255a373a3cef72e03aa9d980c7eca/uploads/2026/02/17707187705371.pdf","applyUrl":"https://cdn.s3waas.gov.in/s3d1f255a373a3cef72e03aa9d980c7eca/uploads/2026/02/17707187705371.pdf","sourceName":"Free Job Alert","sourceUrl":"https://www.freejobalert.com/articles/juvenile-justice-board-tiruppur-social-worker-members-recruitment-2026-apply-offline-for-02-posts-3037219","isVerified":true,"description":"[PORTAL_FALLBACK] Download Mobile APP\n                                      \n                                 \n                                   \n                                  \n                                  \n                                    \n                                     Join Whatsapp\n                                  \n                                  \n                                  \n                                  \n                                  \n                  ","salaryRange":null,"photoRequirements":null,"signatureRequirements":null,"createdAt":"2026-02-12T12:04:34.782Z","updatedAt":"2026-02-12T12:04:34.782Z"},{"id":"2d54db79-0928-4090-8641-23e390aa923f","title":"IIM Udaipur Junior Assistant","department":"IIM Udaipur","category":"Other","states":["All India"],"ageMin":null,"ageMax":null,"ageRelaxation":null,"qualification":"Bachelor's Degree with Hindi and English proficiency (55% marks minimum)","vacancies":null,"applicationStartDate":null,"lastDate":"2026-03-04","examDate":null,"notificationPdfUrl":null,"applyUrl":"https://www.iimu.ac.in","sourceName":"Free Job Alert","sourceUrl":"https://www.freejobalert.com/articles/iim-udaipur-junior-assistant-recruitment-2026-apply-online-3037228","isVerified":true,"description":"Download Mobile APP\n                                      \n                                 \n                                   \n                                  \n                                  \n                                    \n                                     Join Whatsapp\n                                  \n                                  \n                                  \n                                  \n                                  \n                                  \n   ","salaryRange":"Rs. 19,900/-","photoRequirements":null,"signatureRequirements":null,"createdAt":"2026-02-12T12:04:33.261Z","updatedAt":"2026-02-12T12:04:33.261Z"},{"id":"4b6d3454-ed43-4db5-9e0d-13e026140b97","title":"Patiala District Court Clerk, Stenographer     – 48 Posts","department":"Patiala District Court","category":"Other","states":["All India"],"ageMin":18,"ageMax":37,"ageRelaxation":null,"qualification":"Graduate","vacancies":48,"applicationStartDate":"2026-02-03","lastDate":"2026-02-17","examDate":null,"notificationPdfUrl":null,"applyUrl":"https://patiala.dcourts.gov.in/","sourceName":"Free Job Alert","sourceUrl":"https://www.freejobalert.com/articles/patiala-district-court-recruitment-2026-apply-offline-for-48-clerk-stenographer-posts-3037224","isVerified":true,"description":"Download Mobile APP\n                                      \n                                 \n                                   \n                                  \n                                  \n                                    \n                                     Join Whatsapp\n                                  \n                                  \n                                  \n                                  \n                                  \n                                  \n   ","salaryRange":"Clerk: Rs.29,200/- Per Month\n\t\t\tStenographer Grade-III: Rs.29,200/- Per Month","photoRequirements":null,"signatureRequirements":null,"createdAt":"2026-02-12T12:04:32.804Z","updatedAt":"2026-02-12T12:04:32.804Z"},{"id":"e3dcd7fd-2021-456f-b3ca-400f3319bbcf","title":"TISS Academic Programme Manager     – 01 Posts","department":"TISS","category":"Other","states":["All India"],"ageMin":null,"ageMax":null,"ageRelaxation":null,"qualification":"Master's Degree","vacancies":1,"applicationStartDate":"2026-02-05","lastDate":"2026-02-16","examDate":null,"notificationPdfUrl":"https://tiss.ac.in/uploads/files/Final_Advertisement_-_Academic_Programme_Manager_SHSS_TISS_Mumbai_-_05-02-2026-1.pdf","applyUrl":"https://tiss.ac.in","sourceName":"Free Job Alert","sourceUrl":"https://www.freejobalert.com/articles/tiss-academic-programme-manager-recruitment-2026-apply-online-for-01-posts-3037208","isVerified":true,"description":"Download Mobile APP\n                                      \n                                 \n                                   \n                                  \n                                  \n                                    \n                                     Join Whatsapp\n                                  \n                                  \n                                  \n                                  \n                                  \n                                  \n   ","salaryRange":"Rs.60,000/- Per Month (Gross)","photoRequirements":null,"signatureRequirements":null,"createdAt":"2026-02-12T12:04:26.474Z","updatedAt":"2026-02-12T12:04:26.474Z"},{"id":"d14ee401-880c-4f58-8d00-b297feb5005c","title":"IIM Nagpur Executive","department":"Indian Institute of Management Nagpur (IIM Nagpur)","category":"Other","states":["All India"],"ageMin":null,"ageMax":null,"ageRelaxation":null,"qualification":"Graduation degree from a recognized University/Institute","vacancies":null,"applicationStartDate":null,"lastDate":"2026-02-19","examDate":null,"notificationPdfUrl":null,"applyUrl":"https://www.iimnagpur.ac.in","sourceName":"Free Job Alert","sourceUrl":"https://www.freejobalert.com/articles/iim-nagpur-executive-recruitment-2026-apply-online-3037216","isVerified":true,"description":"Download Mobile APP\n                                      \n                                 \n                                   \n                                  \n                                  \n                                    \n                                     Join Whatsapp\n                                  \n                                  \n                                  \n                                  \n                                  \n                                  \n   ","salaryRange":"As per 7th Pay Commission and Institute norms with 2 years probation period","photoRequirements":null,"signatureRequirements":null,"createdAt":"2026-02-12T12:04:26.434Z","updatedAt":"2026-02-12T12:04:26.434Z"},{"id":"aa6015e7-bde8-4e35-a8c1-8de78066a80c","title":"IIM Kozhikode Research Associate","department":"Indian Institute of Management Kozhikode","category":"Other","states":["All India"],"ageMin":null,"ageMax":null,"ageRelaxation":null,"qualification":"Post-Graduation in Psychology/Sociology or similar disciplines","vacancies":null,"applicationStartDate":"2026-02-10","lastDate":"2026-02-17","examDate":null,"notificationPdfUrl":null,"applyUrl":"https://iimk.ac.in","sourceName":"Free Job Alert","sourceUrl":"https://www.freejobalert.com/articles/iim-kozhikode-research-associate-recruitment-2026-apply-online-3037209","isVerified":true,"description":"Download Mobile APP\n                                      \n                                 \n                                   \n                                  \n                                  \n                                    \n                                     Join Whatsapp\n                                  \n                                  \n                                  \n                                  \n                                  \n                                  \n   ","salaryRange":"Rs. 35,000/- per month (Consolidated)","photoRequirements":null,"signatureRequirements":null,"createdAt":"2026-02-12T12:04:22.137Z","updatedAt":"2026-02-12T12:04:22.137Z"},{"id":"d651354c-1f49-4f8f-8c3b-14e09c111f0f","title":"NAM Kerala Homoeo Pharmacist     – 01 Posts","department":"NAM Kerala","category":"Other","states":["Kerala"],"ageMin":null,"ageMax":null,"ageRelaxation":null,"qualification":"CCP or NCP","vacancies":1,"applicationStartDate":"2026-02-10","lastDate":"2026-02-23","examDate":null,"notificationPdfUrl":"https://www.nam.kerala.gov.in/images/careers/1770724318123.pdf","applyUrl":"https://www.nam.kerala.gov.in","sourceName":"Free Job Alert","sourceUrl":"https://www.freejobalert.com/articles/nam-homoeo-pharmacist-recruitment-2026-walk-in-for-01-posts-3037222","isVerified":true,"description":"Download Mobile APP\n                                      \n                                 \n                                   \n                                  \n                                  \n                                    \n                                     Join Whatsapp\n                                  \n                                  \n                                  \n                                  \n                                  \n                                  \n   ","salaryRange":"Rs.14700/- Per Month","photoRequirements":null,"signatureRequirements":null,"createdAt":"2026-02-12T12:04:22.097Z","updatedAt":"2026-02-12T12:04:22.097Z"},{"id":"5e450963-3812-4b4c-ab9e-71b9faf4f51b","title":"GMCH Chandigarh Project Research Scientist     – 03 Posts","department":"GMCH-32 Chandigarh, Indian Council of Medical Research (ICMR)","category":"Other","states":["Chandigarh"],"ageMin":null,"ageMax":null,"ageRelaxation":null,"qualification":"Post-graduate degree in Medical/Non-Medical fields; MBBS/BDS with MD/MDS/MPH preferred","vacancies":3,"applicationStartDate":null,"lastDate":"2026-02-27","examDate":null,"notificationPdfUrl":"https://gmch.gov.in/sites/default/files/jobs/Advertisement%20for%20project%20staff%20for%20ESCHAR%20Trial%20and%20SPLID%20Trial.PDF","applyUrl":"https://gmch.gov.in","sourceName":"Free Job Alert","sourceUrl":"https://www.freejobalert.com/articles/gmch-chandigarh-project-research-scientist-recruitment-2026-apply-online-for-03-posts-3037221","isVerified":true,"description":"Download Mobile APP\n                                      \n                                 \n                                   \n                                  \n                                  \n                                    \n                                     Join Whatsapp\n                                  \n                                  \n                                  \n                                  \n                                  \n                                  \n   ","salaryRange":"Rs. 67,200 - Rs. 96,000 per month","photoRequirements":null,"signatureRequirements":null,"createdAt":"2026-02-12T12:04:04.877Z","updatedAt":"2026-02-12T12:04:04.877Z"},{"id":"61d54584-af1a-4a34-a45c-aa2da76e4b00","title":"Forest Research Institute JRF, Field Assistant and More     – 52 Posts","department":"Forest Research Institute","category":"Other","states":["All India"],"ageMin":28,"ageMax":40,"ageRelaxation":"28-40 years depending on post, relaxable by 5 years for SC/ST/Women/OBC/PwD","qualification":"M.Sc. in Forestry/Botany/Biotechnology/Environmental Science/Agroforestry (with NET for JRF), B.Sc. in relevant subjects, or Intermediate qualification","vacancies":52,"applicationStartDate":"2026-02-01","lastDate":"2026-02-24","examDate":null,"notificationPdfUrl":"https://fri.icfre.gov.in/wp-content/uploads/2026/02/advertisement.pdf","applyUrl":"https://fri.icfre.gov.in","sourceName":"Free Job Alert","sourceUrl":"https://www.freejobalert.com/articles/forest-research-institute-recruitment-2026-walk-in-for-52-jrf-field-assistant-and-more-posts-3037186","isVerified":true,"description":"Download Mobile APP\n                                      \n                                 \n                                   \n                                  \n                                  \n                                    \n                                     Join Whatsapp\n                                  \n                                  \n                                  \n                                  \n                                  \n                                  \n   ","salaryRange":"Rs. 42,000 (SPA), Rs. 24,000 (JPF), Rs. 37,000 (JRF), Rs. 22,000 (PA), Rs. 20,000 (FA) per month","photoRequirements":null,"signatureRequirements":null,"createdAt":"2026-02-12T10:48:36.448Z","updatedAt":"2026-02-12T12:04:43.187Z"},{"id":"f84309ec-1df2-4b4c-be07-33d60d33bbc6","title":"NHM UP Doctor     – 05 Posts","department":"NHM UP","category":"Other","states":["All India"],"ageMin":null,"ageMax":null,"ageRelaxation":null,"qualification":"Ayurveda Degree / Unani Degree / Homeopathy Degree or Diploma / MBBS","vacancies":5,"applicationStartDate":"2026-02-06","lastDate":"2026-02-21","examDate":null,"notificationPdfUrl":"https://cdn.s3waas.gov.in/s3f718499c1c8cef6730f9fd03c8125cab/uploads/2026/02/17703749433575.pdf","applyUrl":"https://auraiya.nic.in","sourceName":"Free Job Alert","sourceUrl":"https://www.freejobalert.com/articles/nhm-up-chief-medical-office-auraiya-offline-form-2026-3037096","isVerified":true,"description":"Download Mobile APP\n                                      \n                                 \n                                   \n                                  \n                                  \n                                    \n                                     Join Whatsapp\n                                  \n                                  \n                                  \n                                  \n                                  \n                                  \n   ","salaryRange":"Rs. 32,000 - Rs. 100,000/- Per Month","photoRequirements":null,"signatureRequirements":null,"createdAt":"2026-02-12T10:48:32.975Z","updatedAt":"2026-02-12T12:04:39.807Z"},{"id":"31bee8f1-57d6-44fa-84bf-055dc5717daf","title":"AIIMS Jodhpur Project Technician III     – 01 Posts","department":"AIIMS Jodhpur","category":"Other","states":["All India"],"ageMin":null,"ageMax":null,"ageRelaxation":null,"qualification":"12th Pass in Science with B.Sc. in Pulmonary Function Test Technology OR 2-year Diploma in Pulmonary Function Test/Technology with 1 year experience","vacancies":1,"applicationStartDate":"2026-02-11","lastDate":"2026-02-23","examDate":null,"notificationPdfUrl":"https://www.aiimsjodhpur.edu.in/recruitment/Research/2026/1770803463_Recruitment%20Advertisement%2012_2-110226.pdf","applyUrl":"https://www.aiimsjodhpur.edu.in","sourceName":"Free Job Alert","sourceUrl":"https://www.freejobalert.com/articles/aiims-jodhpur-project-technician-iii-recruitment-2026-walk-in-for-01-posts-3037193","isVerified":true,"description":"Download Mobile APP\n                                      \n                                 \n                                   \n                                  \n                                  \n                                    \n                                     Join Whatsapp\n                                  \n                                  \n                                  \n                                  \n                                  \n                                  \n   ","salaryRange":"Rs. 28,000/- + HRA","photoRequirements":"[STANDARD] Photo: JPEG, 50-100 KB, passport size, plain/white background, recent coloured photograph","signatureRequirements":"[STANDARD] Signature: JPEG, 10-50 KB, black ink on white paper","createdAt":"2026-02-12T10:48:27.198Z","updatedAt":"2026-02-12T12:04:33.292Z"},{"id":"c3023373-c7bd-4184-ba39-dd045fc27366","title":"GNDU Professor     – 01 Posts","department":"GNDU","category":"Teaching","states":["All India"],"ageMin":null,"ageMax":null,"ageRelaxation":null,"qualification":"Ph.D.","vacancies":1,"applicationStartDate":"2026-02-10","lastDate":"2026-03-10","examDate":null,"notificationPdfUrl":"https://online.gndu.ac.in/pdf/AdvtNo1_2026.pdf","applyUrl":"https://online.gndu.ac.in/pdf/AdvtNo1_2026.pdf","sourceName":"Free Job Alert","sourceUrl":"https://www.freejobalert.com/articles/gndu-professor-recruitment-2026-apply-online-for-01-posts-3037187","isVerified":true,"description":"Download Mobile APP\n                                      \n                                 \n                                   \n                                  \n                                  \n                                    \n                                     Join Whatsapp\n                                  \n                                  \n                                  \n                                  \n                                  \n                                  \n   ","salaryRange":"Rs. 1,44,200/- (Academic Level 14)","photoRequirements":null,"signatureRequirements":null,"createdAt":"2026-02-12T10:48:26.776Z","updatedAt":"2026-02-12T12:04:32.836Z"},{"id":"14ed4d04-82e8-4f93-89f7-635f599e6ec9","title":"Utkal Balashram Nabarangpur DEO, Paramedical Staff and More     – 08 Posts","department":"Utkal Balashram Nabarangpur","category":"Other","states":["All India"],"ageMin":25,"ageMax":45,"ageRelaxation":null,"qualification":"PG / Graduate / Diploma / Under Matric","vacancies":8,"applicationStartDate":"2026-02-10","lastDate":"2026-02-20","examDate":null,"notificationPdfUrl":"https://nabarangpur.odisha.gov.in/sites/default/files/2026-02/161-Majhiguda.pdf","applyUrl":"https://nabarangpur.odisha.gov.in","sourceName":"Free Job Alert","sourceUrl":"https://www.freejobalert.com/articles/utkal-balashram-nabarangpur-recruitment-2026-apply-online-for-08-deo-paramedical-staff-and-more-posts-3037180","isVerified":true,"description":"Download Mobile APP\n                                      \n                                 \n                                   \n                                  \n                                  \n                                    \n                                     Join Whatsapp\n                                  \n                                  \n                                  \n                                  \n                                  \n                                  \n   ","salaryRange":"Rs.5,100 – Rs.18,536/- Per Month","photoRequirements":null,"signatureRequirements":null,"createdAt":"2026-02-12T10:48:24.299Z","updatedAt":"2026-02-12T12:04:30.398Z"},{"id":"42bd620e-24f4-4f1e-a213-1c15031f5ca9","title":"Zilla Swasthya Samiti Sambalpur Data Assistant cum Accountant, MO and Other     – 33 Posts","department":"Zilla Swasthya Samiti Sambalpur","category":"Other","states":["All India"],"ageMin":null,"ageMax":null,"ageRelaxation":null,"qualification":"MBBS / Ayush / Graduate / Diploma","vacancies":33,"applicationStartDate":"2026-02-11","lastDate":"2026-02-25","examDate":null,"notificationPdfUrl":"https://sambalpur.odisha.gov.in/sites/default/files/2026-02/Letter%20No-396%2C%20ADV-395%2C%20Dt-11.02.20261.pdf","applyUrl":"https://sambalpur.odisha.gov.in/","sourceName":"Free Job Alert","sourceUrl":"https://www.freejobalert.com/articles/zilla-swasthya-samiti-sambalpur-recruitment-2026-walk-in-for-33-data-assistant-cum-accountant-mo-and-other-posts-3037185","isVerified":true,"description":"Download Mobile APP\n                                      \n                                 \n                                   \n                                  \n                                  \n                                    \n                                     Join Whatsapp\n                                  \n                                  \n                                  \n                                  \n                                  \n                                  \n   ","salaryRange":null,"photoRequirements":"[STANDARD] Photo: JPG/JPEG, 10-200 KB, 3.5cm x 4.5cm, white background, 80% face coverage, taken within last 3 months","signatureRequirements":"[STANDARD] Signature: JPG/JPEG, 4-30 KB, 3.5cm x 1.5cm, black ink on white paper, running hand","createdAt":"2026-02-12T10:48:24.256Z","updatedAt":"2026-02-12T12:04:30.358Z"},{"id":"257018bf-7556-454a-a733-6ed872119709","title":"Amdavad Municipal Corporation Additional City Engineer     – 01 Posts","department":"Amdavad Municipal Corporation","category":"Other","states":["All India"],"ageMin":null,"ageMax":null,"ageRelaxation":null,"qualification":"Graduate in Civil Engineering from recognized University with minimum 15 years experience (7 years in Municipal Engineering or reputed organization)","vacancies":1,"applicationStartDate":"2026-02-10","lastDate":"2026-02-27","examDate":null,"notificationPdfUrl":null,"applyUrl":"https://ahmedabadcity.gov.in/","sourceName":"Free Job Alert","sourceUrl":"https://www.freejobalert.com/articles/amdavad-municipal-corporation-additional-city-engineer-recruitment-2026-apply-online-for-01-posts-3037207","isVerified":true,"description":"Download Mobile APP\n                                      \n                                 \n                                   \n                                  \n                                  \n                                    \n                                     Join Whatsapp\n                                  \n                                  \n                                  \n                                  \n                                  \n                                  \n   ","salaryRange":"27 February 2026","photoRequirements":null,"signatureRequirements":null,"createdAt":"2026-02-12T10:48:23.012Z","updatedAt":"2026-02-12T12:04:14.876Z"},{"id":"48d22e5d-3f1a-43ce-a409-270a0787941e","title":"MPERC Electricity Ombudsman     – 01 Posts","department":"MPERC","category":"Other","states":["All India"],"ageMin":null,"ageMax":null,"ageRelaxation":null,"qualification":"Legal Affairs: District Judge level (2 years) or Advocate (7 years practice) | Industry/Engineering/Finance: Superintending Engineer and above or CFO/Executive Director/Director in PSU/Utility/Regulatory Commission (2 years) | Administrative/Management/Defence Services: Additional Secretary to State","vacancies":1,"applicationStartDate":"2026-02-06","lastDate":"2026-03-09","examDate":null,"notificationPdfUrl":"https://mperc.in/uploads/notice/785fe3359f65788c313416f45340b341.pdf","applyUrl":null,"sourceName":"Free Job Alert","sourceUrl":"https://www.freejobalert.com/articles/mperc-electricity-ombudsman-recruitment-2026-apply-offline-for-01-posts-3037198","isVerified":true,"description":"Download Mobile APP\n                                      \n                                 \n                                   \n                                  \n                                  \n                                    \n                                     Join Whatsapp\n                                  \n                                  \n                                  \n                                  \n                                  \n                                  \n   ","salaryRange":"Rs. 40,000 per month honorarium","photoRequirements":null,"signatureRequirements":null,"createdAt":"2026-02-12T10:48:18.447Z","updatedAt":"2026-02-12T12:04:24.654Z"}],"total":872,"page":1,"totalPages":44}